Library\Bee\artifacts\mvdfrm\Unity.EditorCoroutines.Editor.ref.dll_34ED10A34098B2DB.mvfrm
Library\Bee\artifacts\mvdfrm\Unity.Performance.Profile-Analyzer.Editor.ref.dll_65A192712782EB2B.mvfrm
Library\Bee\artifacts\mvdfrm\Unity.PlasticSCM.Editor.ref.dll_257AEB342BE77856.mvfrm
Library\Bee\artifacts\mvdfrm\Unity.Postprocessing.Editor.ref.dll_1C9CD17610FFA3F0.mvfrm
Library\Bee\artifacts\mvdfrm\Unity.Postprocessing.Runtime.ref.dll_3152B6A9836FBF3B.mvfrm
Library\Bee\artifacts\mvdfrm\Unity.ProBuilder.AddOns.Editor.ref.dll_F524F8CE15EFFDA6.mvfrm
Library\Bee\artifacts\mvdfrm\Unity.ProBuilder.AssetIdRemapUtility.ref.dll_A186D6143F9C679C.mvfrm
Library\Bee\artifacts\mvdfrm\Unity.ProBuilder.Editor.ref.dll_E3AF217646286A75.mvfrm
Library\Bee\artifacts\mvdfrm\Unity.ProBuilder.ref.dll_E7A4225E7DFD40FC.mvfrm
Library\Bee\artifacts\mvdfrm\Unity.ProGrids.Editor.ref.dll_67386EA6502F1223.mvfrm
Library\Bee\artifacts\mvdfrm\Unity.ProGrids.ref.dll_6BFA136B10F4766E.mvfrm
Library\Bee\artifacts\mvdfrm\Unity.Rider.Editor.ref.dll_9B5591808ABA37AF.mvfrm
Library\Bee\artifacts\mvdfrm\Unity.Services.Core.Analytics.ref.dll_EDA1682A714EA6BF.mvfrm
Library\Bee\artifacts\mvdfrm\Unity.Services.Core.Environments.ref.dll_7E0AC2CDE81D9C6D.mvfrm
Library\Bee\artifacts\mvdfrm\Unity.Services.Core.ref.dll_131AC9C5EC6E6517.mvfrm
Library\Bee\artifacts\mvdfrm\Unity.TestTools.CodeCoverage.Editor.OpenCover.Model.ref.dll_D3B9364D6FB03093.mvfrm
Library\Bee\artifacts\mvdfrm\Unity.TestTools.CodeCoverage.Editor.OpenCover.Mono.Reflection.ref.dll_E668CD773429A040.mvfrm
Library\Bee\artifacts\mvdfrm\Unity.TestTools.CodeCoverage.Editor.ref.dll_F09CF4826CE11CD9.mvfrm
Library\Bee\artifacts\mvdfrm\Unity.TextMeshPro.Editor.ref.dll_159E061D77A10B86.mvfrm
Library\Bee\artifacts\mvdfrm\Unity.TextMeshPro.ref.dll_84A4293DBDD182DB.mvfrm
Library\Bee\artifacts\mvdfrm\Unity.Timeline.Editor.ref.dll_0D3D3C0B73557612.mvfrm
Library\Bee\artifacts\mvdfrm\Unity.Timeline.ref.dll_621CDDF9C514DF8F.mvfrm
Library\Bee\artifacts\mvdfrm\Unity.VSCode.Editor.ref.dll_3628369EB48E4C19.mvfrm
Library\Bee\artifacts\mvdfrm\Unity.VisualScripting.Core.Editor.ref.dll_EDC8690F57C5BDFD.mvfrm
Library\Bee\artifacts\mvdfrm\Unity.VisualScripting.Core.ref.dll_D75DF4EA1AFE54F4.mvfrm
Library\Bee\artifacts\mvdfrm\Unity.VisualScripting.Flow.Editor.ref.dll_6AF951BE66A4493E.mvfrm
Library\Bee\artifacts\mvdfrm\Unity.VisualScripting.Flow.ref.dll_1E6ED5409D07C9A3.mvfrm
Library\Bee\artifacts\mvdfrm\Unity.VisualScripting.SettingsProvider.Editor.ref.dll_A1A44354E0B583A8.mvfrm
Library\Bee\artifacts\mvdfrm\Unity.VisualScripting.Shared.Editor.ref.dll_9669F6EBFF6DFFB7.mvfrm
Library\Bee\artifacts\mvdfrm\Unity.VisualScripting.State.Editor.ref.dll_E03858E727F23F6F.mvfrm
Library\Bee\artifacts\mvdfrm\Unity.VisualScripting.State.ref.dll_D91762B7076BE462.mvfrm
Library\Bee\artifacts\mvdfrm\Unity.VisualStudio.Editor.ref.dll_3A975DBA53ABA4AD.mvfrm
Library\Bee\artifacts\mvdfrm\UnityEditor.UI.ref.dll_4C98D3F7040CD4F5.mvfrm
Library\Bee\artifacts\mvdfrm\UnityEngine.UI.ref.dll_08FEAA520A2EFD60.mvfrm
Library\Bee\artifacts\mvdfrm\UnityEditor.CoreModule.dll_4D1D5608A9EED772.mvfrm
Library\Bee\artifacts\mvdfrm\UnityEditor.DeviceSimulatorModule.dll_6100947967016EEF.mvfrm
Library\Bee\artifacts\mvdfrm\UnityEditor.DiagnosticsModule.dll_6CB1B197DA51CD7D.mvfrm
Library\Bee\artifacts\mvdfrm\UnityEditor.dll_583E249AF2317783.mvfrm
Library\Bee\artifacts\mvdfrm\UnityEditor.GraphViewModule.dll_54944CE63410A3B4.mvfrm
Library\Bee\artifacts\mvdfrm\UnityEditor.PackageManagerUIModule.dll_9499973B6E914A4E.mvfrm
Library\Bee\artifacts\mvdfrm\UnityEditor.QuickSearchModule.dll_F7C132A53328C9D6.mvfrm
Library\Bee\artifacts\mvdfrm\UnityEditor.SceneTemplateModule.dll_504A4C366A893F17.mvfrm
Library\Bee\artifacts\mvdfrm\UnityEditor.TextCoreFontEngineModule.dll_85BFEB8E132F60B0.mvfrm
Library\Bee\artifacts\mvdfrm\UnityEditor.TextCoreTextEngineModule.dll_CDA821FFA2B319CE.mvfrm
Library\Bee\artifacts\mvdfrm\UnityEditor.UIBuilderModule.dll_A91CFA02A6C91CE8.mvfrm
Library\Bee\artifacts\mvdfrm\UnityEditor.UIElementsModule.dll_E7D33874A788456E.mvfrm
Library\Bee\artifacts\mvdfrm\UnityEditor.UIElementsSamplesModule.dll_A29B503B2B704CDF.mvfrm
Library\Bee\artifacts\mvdfrm\UnityEditor.UIServiceModule.dll_E20F0B6590006D02.mvfrm
Library\Bee\artifacts\mvdfrm\UnityEditor.UnityConnectModule.dll_6F1E97FB1A7D3F28.mvfrm
Library\Bee\artifacts\mvdfrm\UnityEngine.AccessibilityModule.dll_82EFB7CD6AFF66B4.mvfrm
Library\Bee\artifacts\mvdfrm\UnityEngine.AIModule.dll_16727867A9492B86.mvfrm
Library\Bee\artifacts\mvdfrm\UnityEngine.AndroidJNIModule.dll_661C2147F0A7B444.mvfrm
Library\Bee\artifacts\mvdfrm\UnityEngine.AnimationModule.dll_2319C90F0E6D785A.mvfrm
Library\Bee\artifacts\mvdfrm\UnityEngine.ARModule.dll_CFE53D6B06668A4F.mvfrm
Library\Bee\artifacts\mvdfrm\UnityEngine.AssetBundleModule.dll_3BAA6596958F7EC8.mvfrm
Library\Bee\artifacts\mvdfrm\UnityEngine.AudioModule.dll_DFE481933CB232CC.mvfrm
Library\Bee\artifacts\mvdfrm\UnityEngine.ClothModule.dll_46CCDE8E16CF11B0.mvfrm
Library\Bee\artifacts\mvdfrm\UnityEngine.ClusterInputModule.dll_EEBB0D10CC0511EE.mvfrm
Library\Bee\artifacts\mvdfrm\UnityEngine.ClusterRendererModule.dll_66AD56EAD6BC7C73.mvfrm
Library\Bee\artifacts\mvdfrm\UnityEngine.CoreModule.dll_703E295B51F4429D.mvfrm
Library\Bee\artifacts\mvdfrm\UnityEngine.CrashReportingModule.dll_F44EAB546C6A1A55.mvfrm
Library\Bee\artifacts\mvdfrm\UnityEngine.DirectorModule.dll_9D435A9097F1CFFA.mvfrm
Library\Bee\artifacts\mvdfrm\UnityEngine.dll_8AE26B7350A50468.mvfrm
Library\Bee\artifacts\mvdfrm\UnityEngine.DSPGraphModule.dll_A294BBFA0A52A11B.mvfrm
Library\Bee\artifacts\mvdfrm\UnityEngine.GameCenterModule.dll_90696B62B6E8A535.mvfrm
Library\Bee\artifacts\mvdfrm\UnityEngine.GIModule.dll_AEAEC17544F813A0.mvfrm
Library\Bee\artifacts\mvdfrm\UnityEngine.GridModule.dll_4DAF45496A48D894.mvfrm
Library\Bee\artifacts\mvdfrm\UnityEngine.HotReloadModule.dll_A4628714E9A093DC.mvfrm
Library\Bee\artifacts\mvdfrm\UnityEngine.ImageConversionModule.dll_D29F549B58E13467.mvfrm
Library\Bee\artifacts\mvdfrm\UnityEngine.IMGUIModule.dll_184420FA02E3C6AD.mvfrm
Library\Bee\artifacts\mvdfrm\UnityEngine.InputLegacyModule.dll_CCEF80B52D8134B9.mvfrm
Library\Bee\artifacts\mvdfrm\UnityEngine.InputModule.dll_465A4943B2EA5770.mvfrm
Library\Bee\artifacts\mvdfrm\UnityEngine.JSONSerializeModule.dll_E30741096A3AC73E.mvfrm
Library\Bee\artifacts\mvdfrm\UnityEngine.LocalizationModule.dll_2D07D763638104E7.mvfrm
Library\Bee\artifacts\mvdfrm\UnityEngine.ParticleSystemModule.dll_4760F4A0DA7BA5E3.mvfrm
Library\Bee\artifacts\mvdfrm\UnityEngine.PerformanceReportingModule.dll_41F9A6FBCB0BB45C.mvfrm
Library\Bee\artifacts\mvdfrm\UnityEngine.Physics2DModule.dll_6FBFB8FFAF6A6FEF.mvfrm
Library\Bee\artifacts\mvdfrm\UnityEngine.PhysicsModule.dll_1516443C02216F1D.mvfrm
Library\Bee\artifacts\mvdfrm\UnityEngine.ProfilerModule.dll_CF8993C7314B5707.mvfrm
Library\Bee\artifacts\mvdfrm\UnityEngine.RuntimeInitializeOnLoadManagerInitializerModule.dll_7E34562313AA3EB8.mvfrm
Library\Bee\artifacts\mvdfrm\UnityEngine.ScreenCaptureModule.dll_FCEEEE8E7EA6F3A0.mvfrm
Library\Bee\artifacts\mvdfrm\UnityEngine.SharedInternalsModule.dll_56B09370D00F2FB7.mvfrm
Library\Bee\artifacts\mvdfrm\UnityEngine.SpriteMaskModule.dll_7995DDF2D8583AAF.mvfrm
Library\Bee\artifacts\mvdfrm\UnityEngine.SpriteShapeModule.dll_550B92F14B31B6D2.mvfrm
Library\Bee\artifacts\mvdfrm\UnityEngine.StreamingModule.dll_D7AEB65F5DF52F98.mvfrm
Library\Bee\artifacts\mvdfrm\UnityEngine.SubstanceModule.dll_B459CAA8A9482DA6.mvfrm
Library\Bee\artifacts\mvdfrm\UnityEngine.SubsystemsModule.dll_E4434454A6A022C2.mvfrm
Library\Bee\artifacts\mvdfrm\UnityEngine.TerrainModule.dll_2F5CBFAAD7DFB80B.mvfrm
Library\Bee\artifacts\mvdfrm\UnityEngine.TerrainPhysicsModule.dll_47DB9D73F3BEA070.mvfrm
Library\Bee\artifacts\mvdfrm\UnityEngine.TextCoreFontEngineModule.dll_041F66E1262D1F7B.mvfrm
Library\Bee\artifacts\mvdfrm\UnityEngine.TextCoreTextEngineModule.dll_4C079D52B5B0D899.mvfrm
Library\Bee\artifacts\mvdfrm\UnityEngine.TextRenderingModule.dll_262E609935DE7395.mvfrm
Library\Bee\artifacts\mvdfrm\UnityEngine.TilemapModule.dll_CE59272BEF9C9914.mvfrm
Library\Bee\artifacts\mvdfrm\UnityEngine.TLSModule.dll_43800AD3F17330B1.mvfrm
Library\Bee\artifacts\mvdfrm\UnityEngine.UIElementsModule.dll_E881A5BCA9CC5EB9.mvfrm
Library\Bee\artifacts\mvdfrm\UnityEngine.UIElementsNativeModule.dll_DF134BD0E009BA70.mvfrm
Library\Bee\artifacts\mvdfrm\UnityEngine.UIModule.dll_11E6169505903132.mvfrm
Library\Bee\artifacts\mvdfrm\UnityEngine.UmbraModule.dll_5AB92DABC9D8DE3F.mvfrm
Library\Bee\artifacts\mvdfrm\UnityEngine.UNETModule.dll_02E471449F033816.mvfrm
Library\Bee\artifacts\mvdfrm\UnityEngine.UnityAnalyticsModule.dll_6700656A86A2F7DF.mvfrm
Library\Bee\artifacts\mvdfrm\UnityEngine.UnityConnectModule.dll_5C7E1C0A15053FD3.mvfrm
Library\Bee\artifacts\mvdfrm\UnityEngine.UnityCurlModule.dll_56366A407E816A47.mvfrm
Library\Bee\artifacts\mvdfrm\UnityEngine.UnityTestProtocolModule.dll_5E5E062D856BA235.mvfrm
Library\Bee\artifacts\mvdfrm\UnityEngine.UnityWebRequestAssetBundleModule.dll_7BD9CD1D391B69F0.mvfrm
Library\Bee\artifacts\mvdfrm\UnityEngine.UnityWebRequestAudioModule.dll_B9F5FADA51767EF4.mvfrm
Library\Bee\artifacts\mvdfrm\UnityEngine.UnityWebRequestModule.dll_E43E5C4563D5CEE6.mvfrm
Library\Bee\artifacts\mvdfrm\UnityEngine.UnityWebRequestTextureModule.dll_9B5692C6EEBD3B49.mvfrm
Library\Bee\artifacts\mvdfrm\UnityEngine.UnityWebRequestWWWModule.dll_16C9E2AEA5709505.mvfrm
Library\Bee\artifacts\mvdfrm\UnityEngine.VehiclesModule.dll_15065410121B9F95.mvfrm
Library\Bee\artifacts\mvdfrm\UnityEngine.VFXModule.dll_C45EA342C7E09A1E.mvfrm
Library\Bee\artifacts\mvdfrm\UnityEngine.VideoModule.dll_04EE05FDFF444E71.mvfrm
Library\Bee\artifacts\mvdfrm\UnityEngine.VirtualTexturingModule.dll_03A0003FB8B83AFB.mvfrm
Library\Bee\artifacts\mvdfrm\UnityEngine.VRModule.dll_64B83D1AA74AB6AA.mvfrm
Library\Bee\artifacts\mvdfrm\UnityEngine.WindModule.dll_E68D0483E32AC106.mvfrm
Library\Bee\artifacts\mvdfrm\UnityEngine.XRModule.dll_9777001F30850408.mvfrm
Library\Bee\artifacts\mvdfrm\Unity.Android.Gradle.dll_047BD5D32368DA5A.mvfrm
Library\Bee\artifacts\mvdfrm\Unity.Android.Types.dll_66653E128564E282.mvfrm
Library\Bee\artifacts\mvdfrm\Unity.VisualScripting.Antlr3.Runtime.dll_BEA9F3C17180AC2A.mvfrm